INDEX VERSION 1.131+E:\cursuri\Alex\Anul 4-etti\Semestrul 1\P3\tema-15\.metadata\.plugins\org.eclipse.jdt.core
1302169873.index
1470398310.index
2611222531.index
4093139646.index
1689235158.index
3036844263.index
3497123382.index
260200378.index
4157720003.index
4286852409.index
2004484389.index
1748729559.index
1286046661.index
411195085.index
3806075219.index
3455764088.index
3914511849.index
3341421718.index
2892282491.index
3377069503.index
3366753791.index
2109989883.index
3033090341.index
1865797976.index
2398908698.index
3610168844.index
3581318925.index
1010368028.index
2673962103.index
3605109306.index
4074777667.index
1209574374.index
96197184.index
3236761076.index
2993330604.index
1547175635.index
2545913194.index
3322806311.index
1649475876.index
1118395817.index
2793142817.index
88120989.index
1133306936.index
3086127225.index
2065915665.index
119951951.index
1899437929.index
3964675192.index
3026051206.index
2832180751.index
1031505408.index
4265635806.index
819767590.index
1934245771.index
4231217761.index
973719397.index
958706229.index
2912014654.index
278698629.index
