127.0.0.1 - - [09/Jan/2023:00:05:58 +0200] "GET / HTTP/1.1" 404 751
0:0:0:0:0:0:0:1 - - [09/Jan/2023:00:05:59 +0200] "GET /tema15/ HTTP/1.1" 200 193
0:0:0:0:0:0:0:1 - - [09/Jan/2023:00:06:01 +0200] "GET /tema15/Country.jsp HTTP/1.1" 500 2879
0:0:0:0:0:0:0:1 - - [09/Jan/2023:00:07:01 +0200] "GET /tema15/ HTTP/1.1" 304 -
0:0:0:0:0:0:0:1 - - [09/Jan/2023:00:07:05 +0200] "GET /tema15/Country.jsp HTTP/1.1" 200 273
0:0:0:0:0:0:0:1 - - [09/Jan/2023:00:07:29 +0200] "GET /tema15/Country.jsp HTTP/1.1" 200 273
127.0.0.1 - - [09/Jan/2023:00:07:59 +0200] "GET / HTTP/1.1" 404 751
0:0:0:0:0:0:0:1 - - [09/Jan/2023:00:07:59 +0200] "GET /tema15/ HTTP/1.1" 304 -
0:0:0:0:0:0:0:1 - - [09/Jan/2023:00:08:02 +0200] "GET /tema15/Country.jsp HTTP/1.1" 200 273
0:0:0:0:0:0:0:1 - - [09/Jan/2023:00:08:20 +0200] "POST /tema15/result.jsp HTTP/1.1" 500 4095
127.0.0.1 - - [09/Jan/2023:00:21:08 +0200] "GET / HTTP/1.1" 404 751
0:0:0:0:0:0:0:1 - - [09/Jan/2023:00:21:09 +0200] "GET /tema15/ HTTP/1.1" 304 -
0:0:0:0:0:0:0:1 - - [09/Jan/2023:00:21:11 +0200] "GET /tema15/Country.jsp HTTP/1.1" 200 273
0:0:0:0:0:0:0:1 - - [09/Jan/2023:00:21:19 +0200] "POST /tema15/result.jsp HTTP/1.1" 200 17061
0:0:0:0:0:0:0:1 - - [09/Jan/2023:00:21:44 +0200] "POST /tema15/result.jsp HTTP/1.1" 500 2506
0:0:0:0:0:0:0:1 - - [09/Jan/2023:00:22:07 +0200] "POST /tema15/result.jsp HTTP/1.1" 200 17061
0:0:0:0:0:0:0:1 - - [09/Jan/2023:00:22:33 +0200] "POST /tema15/result.jsp HTTP/1.1" 500 2506
0:0:0:0:0:0:0:1 - - [09/Jan/2023:00:23:14 +0200] "POST /tema15/result.jsp HTTP/1.1" 200 18403
0:0:0:0:0:0:0:1 - - [09/Jan/2023:00:23:35 +0200] "POST /tema15/result.jsp HTTP/1.1" 500 2506
0:0:0:0:0:0:0:1 - - [09/Jan/2023:00:24:00 +0200] "POST /tema15/result.jsp HTTP/1.1" 500 2506
0:0:0:0:0:0:0:1 - - [09/Jan/2023:00:24:37 +0200] "POST /tema15/result.jsp HTTP/1.1" 200 18426
127.0.0.1 - - [09/Jan/2023:04:02:04 +0200] "GET / HTTP/1.1" 404 751
0:0:0:0:0:0:0:1 - - [09/Jan/2023:04:02:05 +0200] "GET /tema15/ HTTP/1.1" 304 -
0:0:0:0:0:0:0:1 - - [09/Jan/2023:04:02:08 +0200] "GET /tema15/Country.jsp HTTP/1.1" 200 281
0:0:0:0:0:0:0:1 - - [09/Jan/2023:04:02:16 +0200] "POST /tema15/result.jsp HTTP/1.1" 200 17277
0:0:0:0:0:0:0:1 - - [09/Jan/2023:04:02:46 +0200] "POST /tema15/interval.jsp HTTP/1.1" 200 6078
0:0:0:0:0:0:0:1 - - [09/Jan/2023:04:03:13 +0200] "POST /tema15/interval.jsp HTTP/1.1" 200 6420
127.0.0.1 - - [09/Jan/2023:04:48:28 +0200] "GET / HTTP/1.1" 404 751
0:0:0:0:0:0:0:1 - - [09/Jan/2023:04:48:28 +0200] "GET /tema15/ HTTP/1.1" 304 -
0:0:0:0:0:0:0:1 - - [09/Jan/2023:04:48:33 +0200] "GET /tema15/Country.jsp HTTP/1.1" 200 281
0:0:0:0:0:0:0:1 - - [09/Jan/2023:04:48:38 +0200] "POST /tema15/result.jsp HTTP/1.1" 500 2606
127.0.0.1 - - [09/Jan/2023:04:57:27 +0200] "GET / HTTP/1.1" 404 751
0:0:0:0:0:0:0:1 - - [09/Jan/2023:04:57:29 +0200] "GET /tema15/Country.jsp HTTP/1.1" 200 281
0:0:0:0:0:0:0:1 - - [09/Jan/2023:04:57:37 +0200] "POST /tema15/result.jsp HTTP/1.1" 500 17264
127.0.0.1 - - [09/Jan/2023:06:22:25 +0200] "GET / HTTP/1.1" 404 751
0:0:0:0:0:0:0:1 - - [09/Jan/2023:06:22:25 +0200] "GET /tema15/ HTTP/1.1" 304 -
0:0:0:0:0:0:0:1 - - [09/Jan/2023:06:22:28 +0200] "GET /tema15/Country.jsp HTTP/1.1" 200 281
0:0:0:0:0:0:0:1 - - [09/Jan/2023:06:22:35 +0200] "POST /tema15/result.jsp HTTP/1.1" 500 17270
127.0.0.1 - - [09/Jan/2023:07:38:49 +0200] "GET / HTTP/1.1" 404 751
0:0:0:0:0:0:0:1 - - [09/Jan/2023:07:38:49 +0200] "GET /tema15/ HTTP/1.1" 304 -
0:0:0:0:0:0:0:1 - - [09/Jan/2023:07:38:50 +0200] "GET /tema15/Country.jsp HTTP/1.1" 200 281
0:0:0:0:0:0:0:1 - - [09/Jan/2023:07:38:58 +0200] "POST /tema15/result.jsp HTTP/1.1" 500 17274
127.0.0.1 - - [09/Jan/2023:07:50:17 +0200] "GET / HTTP/1.1" 404 751
0:0:0:0:0:0:0:1 - - [09/Jan/2023:07:50:19 +0200] "GET /tema15/Country.jsp HTTP/1.1" 200 281
0:0:0:0:0:0:0:1 - - [09/Jan/2023:07:50:25 +0200] "POST /tema15/result.jsp HTTP/1.1" 500 2953
127.0.0.1 - - [09/Jan/2023:07:51:18 +0200] "GET / HTTP/1.1" 404 751
0:0:0:0:0:0:0:1 - - [09/Jan/2023:07:51:20 +0200] "GET /tema15/Country.jsp HTTP/1.1" 200 281
0:0:0:0:0:0:0:1 - - [09/Jan/2023:07:51:26 +0200] "POST /tema15/result.jsp HTTP/1.1" 500 14707
127.0.0.1 - - [09/Jan/2023:07:58:23 +0200] "GET / HTTP/1.1" 404 751
0:0:0:0:0:0:0:1 - - [09/Jan/2023:07:58:25 +0200] "GET /tema15/Country.jsp HTTP/1.1" 200 281
0:0:0:0:0:0:0:1 - - [09/Jan/2023:07:58:32 +0200] "POST /tema15/result.jsp HTTP/1.1" 500 20630
127.0.0.1 - - [09/Jan/2023:08:00:17 +0200] "GET / HTTP/1.1" 404 751
0:0:0:0:0:0:0:1 - - [09/Jan/2023:08:00:20 +0200] "GET /tema15/Country.jsp HTTP/1.1" 200 281
0:0:0:0:0:0:0:1 - - [09/Jan/2023:08:00:26 +0200] "POST /tema15/result.jsp HTTP/1.1" 500 2953
127.0.0.1 - - [09/Jan/2023:08:32:19 +0200] "GET / HTTP/1.1" 404 751
0:0:0:0:0:0:0:1 - - [09/Jan/2023:08:32:20 +0200] "GET /tema15/ HTTP/1.1" 304 -
0:0:0:0:0:0:0:1 - - [09/Jan/2023:08:32:23 +0200] "GET /tema15/Country.jsp HTTP/1.1" 200 281
0:0:0:0:0:0:0:1 - - [09/Jan/2023:08:32:31 +0200] "POST /tema15/result.jsp HTTP/1.1" 500 20630
127.0.0.1 - - [09/Jan/2023:08:52:44 +0200] "GET / HTTP/1.1" 404 751
0:0:0:0:0:0:0:1 - - [09/Jan/2023:08:52:46 +0200] "GET /tema15/Country.jsp HTTP/1.1" 200 281
0:0:0:0:0:0:0:1 - - [09/Jan/2023:08:52:52 +0200] "POST /tema15/result.jsp HTTP/1.1" 500 25360
0:0:0:0:0:0:0:1 - - [09/Jan/2023:08:53:15 +0200] "POST /tema15/result.jsp HTTP/1.1" 500 30734
0:0:0:0:0:0:0:1 - - [09/Jan/2023:08:53:25 +0200] "POST /tema15/result.jsp HTTP/1.1" 200 44
0:0:0:0:0:0:0:1 - - [09/Jan/2023:08:53:27 +0200] "POST /tema15/result.jsp HTTP/1.1" 500 29499
0:0:0:0:0:0:0:1 - - [09/Jan/2023:08:53:41 +0200] "POST /tema15/result.jsp HTTP/1.1" 500 29499
0:0:0:0:0:0:0:1 - - [09/Jan/2023:08:53:46 +0200] "POST /tema15/result.jsp HTTP/1.1" 500 29499
0:0:0:0:0:0:0:1 - - [09/Jan/2023:08:53:57 +0200] "POST /tema15/result.jsp HTTP/1.1" 500 33683
127.0.0.1 - - [09/Jan/2023:09:09:55 +0200] "GET / HTTP/1.1" 404 751
0:0:0:0:0:0:0:1 - - [09/Jan/2023:09:09:57 +0200] "GET /tema15/Country.jsp HTTP/1.1" 200 281
0:0:0:0:0:0:0:1 - - [09/Jan/2023:09:10:02 +0200] "POST /tema15/result.jsp HTTP/1.1" 500 4372
127.0.0.1 - - [09/Jan/2023:09:10:51 +0200] "GET / HTTP/1.1" 404 751
0:0:0:0:0:0:0:1 - - [09/Jan/2023:09:10:52 +0200] "GET /tema15/Country.jsp HTTP/1.1" 200 281
0:0:0:0:0:0:0:1 - - [09/Jan/2023:09:10:58 +0200] "POST /tema15/result.jsp HTTP/1.1" 500 41074
127.0.0.1 - - [09/Jan/2023:09:24:28 +0200] "GET / HTTP/1.1" 404 751
0:0:0:0:0:0:0:1 - - [09/Jan/2023:09:24:28 +0200] "GET /tema15/ HTTP/1.1" 304 -
0:0:0:0:0:0:0:1 - - [09/Jan/2023:09:24:31 +0200] "GET /tema15/Country.jsp HTTP/1.1" 200 281
0:0:0:0:0:0:0:1 - - [09/Jan/2023:09:24:38 +0200] "POST /tema15/result.jsp HTTP/1.1" 500 41074
127.0.0.1 - - [09/Jan/2023:09:26:51 +0200] "GET / HTTP/1.1" 404 751
0:0:0:0:0:0:0:1 - - [09/Jan/2023:09:26:53 +0200] "GET /tema15/Country.jsp HTTP/1.1" 200 281
0:0:0:0:0:0:0:1 - - [09/Jan/2023:09:27:00 +0200] "POST /tema15/result.jsp HTTP/1.1" 500 41074
127.0.0.1 - - [09/Jan/2023:09:27:31 +0200] "GET / HTTP/1.1" 404 751
0:0:0:0:0:0:0:1 - - [09/Jan/2023:09:27:33 +0200] "GET /tema15/Country.jsp HTTP/1.1" 200 281
0:0:0:0:0:0:0:1 - - [09/Jan/2023:09:27:39 +0200] "POST /tema15/result.jsp HTTP/1.1" 500 41074
127.0.0.1 - - [09/Jan/2023:09:28:17 +0200] "GET / HTTP/1.1" 404 751
0:0:0:0:0:0:0:1 - - [09/Jan/2023:09:28:19 +0200] "GET /tema15/Country.jsp HTTP/1.1" 200 281
0:0:0:0:0:0:0:1 - - [09/Jan/2023:09:28:24 +0200] "POST /tema15/result.jsp HTTP/1.1" 500 -
127.0.0.1 - - [09/Jan/2023:09:28:51 +0200] "GET / HTTP/1.1" 404 751
0:0:0:0:0:0:0:1 - - [09/Jan/2023:09:28:53 +0200] "GET /tema15/Country.jsp HTTP/1.1" 200 281
0:0:0:0:0:0:0:1 - - [09/Jan/2023:09:28:59 +0200] "POST /tema15/result.jsp HTTP/1.1" 200 361
127.0.0.1 - - [09/Jan/2023:09:36:19 +0200] "GET / HTTP/1.1" 404 751
0:0:0:0:0:0:0:1 - - [09/Jan/2023:09:36:21 +0200] "GET /tema15/Country.jsp HTTP/1.1" 200 281
0:0:0:0:0:0:0:1 - - [09/Jan/2023:09:36:27 +0200] "POST /tema15/result.jsp HTTP/1.1" 200 361
0:0:0:0:0:0:0:1 - - [09/Jan/2023:09:36:54 +0200] "POST /tema15/interval.jsp HTTP/1.1" 200 6420
127.0.0.1 - - [09/Jan/2023:09:42:13 +0200] "GET / HTTP/1.1" 404 751
0:0:0:0:0:0:0:1 - - [09/Jan/2023:09:42:15 +0200] "GET /tema15/Country.jsp HTTP/1.1" 200 281
0:0:0:0:0:0:0:1 - - [09/Jan/2023:09:42:22 +0200] "POST /tema15/result.jsp HTTP/1.1" 500 41069
127.0.0.1 - - [09/Jan/2023:09:50:26 +0200] "GET / HTTP/1.1" 404 751
0:0:0:0:0:0:0:1 - - [09/Jan/2023:09:50:28 +0200] "GET /tema15/Country.jsp HTTP/1.1" 200 281
0:0:0:0:0:0:0:1 - - [09/Jan/2023:09:50:36 +0200] "POST /tema15/result.jsp HTTP/1.1" 500 41074
127.0.0.1 - - [09/Jan/2023:11:27:47 +0200] "GET / HTTP/1.1" 404 751
0:0:0:0:0:0:0:1 - - [09/Jan/2023:11:27:47 +0200] "GET /tema15/ HTTP/1.1" 304 -
0:0:0:0:0:0:0:1 - - [09/Jan/2023:11:27:49 +0200] "GET /tema15/Country.jsp HTTP/1.1" 200 281
0:0:0:0:0:0:0:1 - - [09/Jan/2023:11:27:56 +0200] "POST /tema15/result.jsp HTTP/1.1" 500 41074
127.0.0.1 - - [09/Jan/2023:14:11:03 +0200] "GET / HTTP/1.1" 404 751
0:0:0:0:0:0:0:1 - - [09/Jan/2023:14:11:03 +0200] "GET /tema15/ HTTP/1.1" 304 -
0:0:0:0:0:0:0:1 - - [09/Jan/2023:14:11:11 +0200] "GET /tema15/Country.jsp HTTP/1.1" 200 281
0:0:0:0:0:0:0:1 - - [09/Jan/2023:14:11:18 +0200] "POST /tema15/result.jsp HTTP/1.1" 500 41074
127.0.0.1 - - [09/Jan/2023:14:15:59 +0200] "GET / HTTP/1.1" 404 751
0:0:0:0:0:0:0:1 - - [09/Jan/2023:14:16:05 +0200] "GET /tema15/Country.jsp HTTP/1.1" 200 281
0:0:0:0:0:0:0:1 - - [09/Jan/2023:14:16:13 +0200] "POST /tema15/result.jsp HTTP/1.1" 500 41069
127.0.0.1 - - [09/Jan/2023:14:18:18 +0200] "GET / HTTP/1.1" 404 751
0:0:0:0:0:0:0:1 - - [09/Jan/2023:14:18:20 +0200] "GET /tema15/Country.jsp HTTP/1.1" 200 281
0:0:0:0:0:0:0:1 - - [09/Jan/2023:14:18:30 +0200] "POST /tema15/result.jsp HTTP/1.1" 500 2743
127.0.0.1 - - [09/Jan/2023:14:19:07 +0200] "GET / HTTP/1.1" 404 751
0:0:0:0:0:0:0:1 - - [09/Jan/2023:14:19:09 +0200] "GET /tema15/Country.jsp HTTP/1.1" 200 281
0:0:0:0:0:0:0:1 - - [09/Jan/2023:14:19:15 +0200] "POST /tema15/result.jsp HTTP/1.1" 200 160
127.0.0.1 - - [09/Jan/2023:14:21:18 +0200] "GET / HTTP/1.1" 404 751
0:0:0:0:0:0:0:1 - - [09/Jan/2023:14:21:20 +0200] "GET /tema15/Country.jsp HTTP/1.1" 200 281
0:0:0:0:0:0:0:1 - - [09/Jan/2023:14:21:29 +0200] "POST /tema15/result.jsp HTTP/1.1" 500 33166
127.0.0.1 - - [09/Jan/2023:14:24:22 +0200] "GET / HTTP/1.1" 404 751
0:0:0:0:0:0:0:1 - - [09/Jan/2023:14:24:24 +0200] "GET /tema15/Country.jsp HTTP/1.1" 200 281
0:0:0:0:0:0:0:1 - - [09/Jan/2023:14:24:30 +0200] "POST /tema15/result.jsp HTTP/1.1" 500 33161
127.0.0.1 - - [09/Jan/2023:14:27:14 +0200] "GET / HTTP/1.1" 404 751
0:0:0:0:0:0:0:1 - - [09/Jan/2023:14:27:16 +0200] "GET /tema15/Country.jsp HTTP/1.1" 200 281
0:0:0:0:0:0:0:1 - - [09/Jan/2023:14:27:21 +0200] "POST /tema15/result.jsp HTTP/1.1" 500 33166
127.0.0.1 - - [09/Jan/2023:14:29:48 +0200] "GET / HTTP/1.1" 404 751
0:0:0:0:0:0:0:1 - - [09/Jan/2023:14:29:52 +0200] "GET /tema15/Country.jsp HTTP/1.1" 200 281
0:0:0:0:0:0:0:1 - - [09/Jan/2023:14:29:59 +0200] "POST /tema15/result.jsp HTTP/1.1" 500 33166
127.0.0.1 - - [09/Jan/2023:14:30:29 +0200] "GET / HTTP/1.1" 404 751
0:0:0:0:0:0:0:1 - - [09/Jan/2023:14:30:29 +0200] "GET /tema15/ HTTP/1.1" 200 193
0:0:0:0:0:0:0:1 - - [09/Jan/2023:14:30:29 +0200] "GET /favicon.ico HTTP/1.1" 404 762
0:0:0:0:0:0:0:1 - - [09/Jan/2023:14:30:32 +0200] "GET /tema15/Country.jsp HTTP/1.1" 200 281
0:0:0:0:0:0:0:1 - - [09/Jan/2023:14:30:37 +0200] "POST /tema15/result.jsp HTTP/1.1" 500 33166
